<?xml version="1.0" encoding="utf-8"?>
<!-- Generator: Adobe Illustrator 16.0.4, SVG Export Plug-In . SVG Version: 6.00 Build 0)  -->
<!DOCTYPE svg PUBLIC "-//W3C//DTD SVG 1.1//EN" "http://www.w3.org/Graphics/SVG/1.1/DTD/svg11.dtd">
<svg version="1.1" id="Layer_1" xmlns="http://www.w3.org/2000/svg" xmlns:xlink="http://www.w3.org/1999/xlink" x="0px" y="0px"
	 width="13.222px" height="70.064px" viewBox="0 0 13.222 70.064" enable-background="new 0 0 13.222 70.064" xml:space="preserve">
<g>
	<polygon fill="#FFFFFF" points="0.943,70.064 0,69.733 12.192,35.032 0,0.331 0.943,0 13.222,34.945 13.193,35.199 	"/>
</g>
</svg>
