<?xml version="1.0" encoding="utf-8"?>
<!-- Generator: Adobe Illustrator 16.0.4, SVG Export Plug-In . SVG Version: 6.00 Build 0)  -->
<!DOCTYPE svg PUBLIC "-//W3C//DTD SVG 1.1//EN" "http://www.w3.org/Graphics/SVG/1.1/DTD/svg11.dtd">
<svg version="1.1" id="Layer_1" xmlns="http://www.w3.org/2000/svg" xmlns:xlink="http://www.w3.org/1999/xlink" x="0px" y="0px"
	 width="30px" height="30px" viewBox="0 0 30 30" style="enable-background:new 0 0 30 30;" xml:space="preserve">
<style type="text/css">
<![CDATA[
	.st0{fill:#464646;}
	.st1{fill:#4B5D74;}
	.st2{fill:#464646;stroke:#464646;stroke-linecap:round;stroke-linejoin:round;stroke-miterlimit:10;}
	.st3{fill:none;stroke:#4B5D74;stroke-miterlimit:10;}
	.st4{fill:#E8E2EB;}
	.st5{fill:none;stroke:#FFFFFF;stroke-width:2;stroke-miterlimit:10;}
	.st6{fill:#825A91;}
	.st7{fill:#82C9EE;}
	.st8{fill:#ED65A5;}
	.st9{fill:#EF62A5;}
	.st10{fill:none;stroke:#FFFFFF;stroke-miterlimit:10;}
	.st11{fill:#547997;}
	.st12{fill:none;stroke:#A9A9A9;stroke-linecap:round;stroke-linejoin:round;stroke-miterlimit:10;}
	.st13{fill:#F7E7EF;}
	.st14{fill:#F9C0DB;}
	.st15{fill:#2ECE90;}
	.st16{fill:none;stroke:#000000;stroke-miterlimit:10;}
	.st17{fill:#FFFFFF;}
	.st18{fill:#69BEE9;}
	.st19{fill:#CCD3DC;}
	.st20{fill:#CCE8F7;}
	.st21{fill:none;stroke:#464646;stroke-linecap:round;stroke-linejoin:round;stroke-miterlimit:10;}
	.st22{fill:#0074BC;}
	.st23{fill:none;stroke:#464646;stroke-linejoin:round;stroke-miterlimit:10;}
	.st24{fill:none;stroke:#A9A9A9;stroke-linecap:round;stroke-linejoin:round;}
	.st25{fill:none;stroke:#464646;stroke-miterlimit:10;}
	.st26{fill:#D6E3ED;}
	.st27{fill:#A5BDD7;}
	.st28{fill:#A5D8F2;}
	.st29{fill:#78C4EB;}
	.st30{fill:none;stroke:#0074BC;stroke-miterlimit:10;}
	.st31{fill:none;stroke:#A9A9A9;stroke-linecap:round;stroke-linejoin:round;stroke-dasharray:0,2.9053;}
]]>
</style>
<g>
	<path class="st1" d="M19.3,26.5h-9v-7.8H2.4v-9h7.8V1.9h9v7.8h7.8v9h-7.8V26.5z M11.3,25.5h7v-7.8h7.8v-7h-7.8V2.9h-7v7.8H3.4v7
		h7.8V25.5z"/>
</g>
</svg>
