<?xml version="1.0" encoding="utf-8"?>
<!-- Generator: Adobe Illustrator 16.0.4, SVG Export Plug-In . SVG Version: 6.00 Build 0)  -->
<!DOCTYPE svg PUBLIC "-//W3C//DTD SVG 1.1//EN" "http://www.w3.org/Graphics/SVG/1.1/DTD/svg11.dtd">
<svg version="1.1" id="Layer_1" xmlns="http://www.w3.org/2000/svg" xmlns:xlink="http://www.w3.org/1999/xlink" x="0px" y="0px"
	 width="30px" height="30px" viewBox="0 0 30 30" style="enable-background:new 0 0 30 30;" xml:space="preserve">
<style type="text/css">
<![CDATA[
	.st0{fill:#464646;}
	.st1{fill:#ffffff;}
	.st2{fill:#464646;stroke:#464646;stroke-linecap:round;stroke-linejoin:round;stroke-miterlimit:10;}
	.st3{fill:none;stroke:#4B5D74;stroke-miterlimit:10;}
	.st4{fill:#E8E2EB;}
	.st5{fill:none;stroke:#FFFFFF;stroke-width:2;stroke-miterlimit:10;}
	.st6{fill:#825A91;}
	.st7{fill:#82C9EE;}
	.st8{fill:#ED65A5;}
	.st9{fill:#EF62A5;}
	.st10{fill:none;stroke:#FFFFFF;stroke-miterlimit:10;}
	.st11{fill:#547997;}
	.st12{fill:none;stroke:#A9A9A9;stroke-linecap:round;stroke-linejoin:round;stroke-miterlimit:10;}
	.st13{fill:#F7E7EF;}
	.st14{fill:#F9C0DB;}
	.st15{fill:#2ECE90;}
	.st16{fill:none;stroke:#000000;stroke-miterlimit:10;}
	.st17{fill:#FFFFFF;}
	.st18{fill:#69BEE9;}
	.st19{fill:#CCD3DC;}
	.st20{fill:#CCE8F7;}
	.st21{fill:none;stroke:#464646;stroke-linecap:round;stroke-linejoin:round;stroke-miterlimit:10;}
	.st22{fill:#0074BC;}
	.st23{fill:none;stroke:#464646;stroke-linejoin:round;stroke-miterlimit:10;}
	.st24{fill:none;stroke:#A9A9A9;stroke-linecap:round;stroke-linejoin:round;}
	.st25{fill:none;stroke:#464646;stroke-miterlimit:10;}
	.st26{fill:#D6E3ED;}
	.st27{fill:#A5BDD7;}
	.st28{fill:#A5D8F2;}
	.st29{fill:#78C4EB;}
	.st30{fill:none;stroke:#0074BC;stroke-miterlimit:10;}
	.st31{fill:none;stroke:#A9A9A9;stroke-linecap:round;stroke-linejoin:round;stroke-dasharray:0,2.9053;}
]]>
</style>
<g>
	<g>
		<path class="st1" d="M24.1,28.4l-9.3-6.2l-9.3,6.2l3-10.7l-8.7-6.9l11.1-0.5l3.9-10.5l3.9,10.5l11.1,0.5l-8.7,6.9L24.1,28.4z
			 M2.5,11.6l7.2,5.7l-2.5,8.8l7.6-5l7.6,5L20,17.3l7.2-5.7L18,11.2l-3.2-8.6l-3.2,8.6L2.5,11.6z"/>
	</g>
</g>
</svg>
