<?xml version="1.0" encoding="utf-8"?>
<!-- Generator: Adobe Illustrator 16.0.4, SVG Export Plug-In . SVG Version: 6.00 Build 0)  -->
<!DOCTYPE svg PUBLIC "-//W3C//DTD SVG 1.1//EN" "http://www.w3.org/Graphics/SVG/1.1/DTD/svg11.dtd">
<svg version="1.1" id="Layer_1" xmlns="http://www.w3.org/2000/svg" xmlns:xlink="http://www.w3.org/1999/xlink" x="0px" y="0px"
	 width="40px" height="40px" viewBox="0 0 40 40" style="enable-background:new 0 0 40 40;" xml:space="preserve">
<style type="text/css">
<![CDATA[
	.st0{fill:#464646;}
	.st1{fill:#4B5D74;}
	.st2{fill:#464646;stroke:#464646;stroke-linecap:round;stroke-linejoin:round;stroke-miterlimit:10;}
	.st3{fill:none;stroke:#4B5D74;stroke-miterlimit:10;}
	.st4{fill:#E8E2EB;}
	.st5{fill:none;stroke:#FFFFFF;stroke-width:2;stroke-miterlimit:10;}
	.st6{fill:#825A91;}
	.st7{fill:#82C9EE;}
	.st8{fill:#ED65A5;}
	.st9{fill:#EF62A5;}
	.st10{fill:none;stroke:#FFFFFF;stroke-miterlimit:10;}
	.st11{fill:#547997;}
	.st12{fill:none;stroke:#A9A9A9;stroke-linecap:round;stroke-linejoin:round;stroke-miterlimit:10;}
	.st13{fill:#F7E7EF;}
	.st14{fill:#F9C0DB;}
	.st15{fill:#2ECE90;}
	.st16{fill:none;stroke:#000000;stroke-miterlimit:10;}
	.st17{fill:#FFFFFF;}
	.st18{fill:#69BEE9;}
	.st19{fill:#CCD3DC;}
	.st20{fill:#CCE8F7;}
	.st21{fill:none;stroke:#464646;stroke-linecap:round;stroke-linejoin:round;stroke-miterlimit:10;}
	.st22{fill:#0074BC;}
	.st23{fill:none;stroke:#464646;stroke-linejoin:round;stroke-miterlimit:10;}
	.st24{fill:none;stroke:#A9A9A9;stroke-linecap:round;stroke-linejoin:round;}
	.st25{fill:none;stroke:#464646;stroke-miterlimit:10;}
	.st26{fill:#D6E3ED;}
	.st27{fill:#A5BDD7;}
	.st28{fill:#A5D8F2;}
	.st29{fill:#78C4EB;}
	.st30{fill:none;stroke:#0074BC;stroke-miterlimit:10;}
	.st31{fill:none;stroke:#A9A9A9;stroke-linecap:round;stroke-linejoin:round;stroke-dasharray:0,2.9053;}
]]>
</style>
<g>
	<path class="st18" d="M14.6,30.2c1.7-0.1,2.1-3.3,2-3.3c-6.2,0-8.4-1.9-8.4-1.9c1.3-1.8,2.8-2.1,3.2-6.4c0.6-5.5-0.7-11.9,8.1-12.2
		c4.3-0.2,4.8,2.1,4.8,2.1c4.8,0,5.3,4.1,4.8,11.7c-0.2,2.6,3.2,4.8,3.2,4.8c-2.2,1.2-6.1,1.6-9.1,1.7c-0.1,1.5,0.5,3.3,2.2,3.4
		c5.8,0.4,7.9,2.5,8.6,4.1c3.7-3.6,6-8.7,6-14.2C40,9,31,0,20,0S0,9,0,20c0,5.6,2.3,10.6,6,14.2C6.7,32.7,8.7,30.6,14.6,30.2z"/>
	<path class="st28" d="M34,34.2c-0.7-1.5-2.8-3.6-8.6-4.1c-1.7-0.1-2.3-1.9-2.2-3.4c3-0.1,7-0.5,9.1-1.7c0,0-3.4-2.1-3.2-4.8
		c0.5-7.6-0.1-11.7-4.8-11.7c0,0-0.5-2.3-4.8-2.1c-8.8,0.3-7.5,6.7-8.1,12.2C11,23,9.5,23.3,8.2,25.1c0,0,2.2,1.8,8.4,1.9
		c0.1,0-0.3,3.2-2,3.3c-5.8,0.4-7.9,2.5-8.6,4c3.6,3.6,8.6,5.8,14,5.8C25.5,40,30.4,37.8,34,34.2z"/>
</g>
</svg>
